simulation/qsim/sap.msim.vcd
$comment
	File created using the following command:
		vcd file sap.msim.vcd -direction
$end
$date
	Thu Oct 26 19:06:55 2023
$end
$version
	ModelSim Version 2020.1
$end
$timescale
	1ps
$end

$scope module top_wf_vlg_vec_tst $end
$var reg 1 ! clk_in $end
$var reg 1 " hlt_in $end
$var reg 1 # rst $end
$var wire 1 $ a_en $end
$var wire 1 % a_load $end
$var wire 1 & a_out [7] $end
$var wire 1 ' a_out [6] $end
$var wire 1 ( a_out [5] $end
$var wire 1 ) a_out [4] $end
$var wire 1 * a_out [3] $end
$var wire 1 + a_out [2] $end
$var wire 1 , a_out [1] $end
$var wire 1 - a_out [0] $end
$var wire 1 . adder_en $end
$var wire 1 / adder_out [7] $end
$var wire 1 0 adder_out [6] $end
$var wire 1 1 adder_out [5] $end
$var wire 1 2 adder_out [4] $end
$var wire 1 3 adder_out [3] $end
$var wire 1 4 adder_out [2] $end
$var wire 1 5 adder_out [1] $end
$var wire 1 6 adder_out [0] $end
$var wire 1 7 adder_sub $end
$var wire 1 8 b_load $end
$var wire 1 9 b_out [7] $end
$var wire 1 : b_out [6] $end
$var wire 1 ; b_out [5] $end
$var wire 1 < b_out [4] $end
$var wire 1 = b_out [3] $end
$var wire 1 > b_out [2] $end
$var wire 1 ? b_out [1] $end
$var wire 1 @ b_out [0] $end
$var wire 1 A bus [7] $end
$var wire 1 B bus [6] $end
$var wire 1 C bus [5] $end
$var wire 1 D bus [4] $end
$var wire 1 E bus [3] $end
$var wire 1 F bus [2] $end
$var wire 1 G bus [1] $end
$var wire 1 H bus [0] $end
$var wire 1 I ir_en $end
$var wire 1 J ir_load $end
$var wire 1 K ir_out [7] $end
$var wire 1 L ir_out [6] $end
$var wire 1 M ir_out [5] $end
$var wire 1 N ir_out [4] $end
$var wire 1 O ir_out [3] $end
$var wire 1 P ir_out [2] $end
$var wire 1 Q ir_out [1] $end
$var wire 1 R ir_out [0] $end
$var wire 1 S mar_load $end
$var wire 1 T mem_en $end
$var wire 1 U mem_out [7] $end
$var wire 1 V mem_out [6] $end
$var wire 1 W mem_out [5] $end
$var wire 1 X mem_out [4] $end
$var wire 1 Y mem_out [3] $end
$var wire 1 Z mem_out [2] $end
$var wire 1 [ mem_out [1] $end
$var wire 1 \ mem_out [0] $end
$var wire 1 ] pc_en $end
$var wire 1 ^ pc_inc $end
$var wire 1 _ pc_out [7] $end
$var wire 1 ` pc_out [6] $end
$var wire 1 a pc_out [5] $end
$var wire 1 b pc_out [4] $end
$var wire 1 c pc_out [3] $end
$var wire 1 d pc_out [2] $end
$var wire 1 e pc_out [1] $end
$var wire 1 f pc_out [0] $end

$scope module i1 $end
$var wire 1 g gnd $end
$var wire 1 h vcc $end
$var wire 1 i unknown $end
$var tri1 1 j devclrn $end
$var tri1 1 k devpor $end
$var tri1 1 l devoe $end
$var wire 1 m ~QUARTUS_CREATED_GND~I_combout $end
$var wire 1 n hlt_in~input_o $end
$var wire 1 o clk_in~input_o $end
$var wire 1 p clk_inst|clk_out~combout $end
$var wire 1 q controller_inst|stage[0]~2_combout $end
$var wire 1 r rst~input_o $end
$var wire 1 s controller_inst|stage~1_combout $end
$var wire 1 t controller_inst|stage~0_combout $end
$var wire 1 u controller_inst|Decoder1~2_combout $end
$var wire 1 v ir_inst|ir[0]~DUPLICATE_q $end
$var wire 1 w controller_inst|Mux0~0_combout $end
$var wire 1 x pc_inst|pc_value[0]~0_combout $end
$var wire 1 y Selector7~0_combout $end
$var wire 1 z pc_inst|pc_value[1]~1_combout $end
$var wire 1 { Selector6~0_combout $end
$var wire 1 | pc_inst|pc_value[2]~2_combout $end
$var wire 1 } Selector5~0_combout $end
$var wire 1 ~ mem_inst|mar[3]~feeder_combout $end
$var wire 1 !! ir_inst|ir[3]~DUPLICATE_q $end
$var wire 1 "! controller_inst|Decoder1~0_combout $end
$var wire 1 #! pc_inst|pc_value[3]~3_combout $end
$var wire 1 $! Selector4~0_combout $end
$var wire 1 %! controller_inst|Decoder1~1_combout $end
$var wire 1 &! controller_inst|Mux1~0_combout $end
$var wire 1 '! controller_inst|Mux2~0_combout $end
$var wire 1 (! controller_inst|Decoder1~3_combout $end
$var wire 1 )! mem_inst|mar[1]~DUPLICATE_q $end
$var wire 1 *! reg_a_inst|reg_value_a[1]~feeder_combout $end
$var wire 1 +! reg_a_inst|reg_value_a[3]~feeder_combout $end
$var wire 1 ,! pc_inst|pc_value [3] $end
$var wire 1 -! pc_inst|pc_value [2] $end
$var wire 1 .! pc_inst|pc_value [1] $end
$var wire 1 /! pc_inst|pc_value [0] $end
$var wire 1 0! ir_inst|ir [7] $end
$var wire 1 1! ir_inst|ir [6] $end
$var wire 1 2! ir_inst|ir [5] $end
$var wire 1 3! ir_inst|ir [4] $end
$var wire 1 4! ir_inst|ir [3] $end
$var wire 1 5! ir_inst|ir [2] $end
$var wire 1 6! ir_inst|ir [1] $end
$var wire 1 7! ir_inst|ir [0] $end
$var wire 1 8! controller_inst|stage [2] $end
$var wire 1 9! controller_inst|stage [1] $end
$var wire 1 :! controller_inst|stage [0] $end
$var wire 1 ;! mem_inst|mar [3] $end
$var wire 1 <! mem_inst|mar [2] $end
$var wire 1 =! mem_inst|mar [1] $end
$var wire 1 >! mem_inst|mar [0] $end
$var wire 1 ?! reg_a_inst|reg_value_a [7] $end
$var wire 1 @! reg_a_inst|reg_value_a [6] $end
$var wire 1 A! reg_a_inst|reg_value_a [5] $end
$var wire 1 B! reg_a_inst|reg_value_a [4] $end
$var wire 1 C! reg_a_inst|reg_value_a [3] $end
$var wire 1 D! reg_a_inst|reg_value_a [2] $end
$var wire 1 E! reg_a_inst|reg_value_a [1] $end
$var wire 1 F! reg_a_inst|reg_value_a [0] $end
$upscope $end
$upscope $end
$enddefinitions $end
#0
$dumpvars
0!
0"
0#
0$
0%
0-
0,
0+
0*
0)
0(
0'
0&
0.
06
05
04
03
02
01
00
0/
07
08
0@
0?
0>
0=
0<
0;
0:
09
0H
0G
0F
0E
0D
0C
0B
0A
0I
0J
0R
0Q
0P
0O
0N
0M
0L
0K
1S
0T
0\
0[
0Z
0Y
0X
0W
0V
0U
1]
0^
0f
0e
0d
0c
0b
0a
0`
0_
0g
1h
xi
1j
1k
1l
0m
0n
0o
0p
1q
0r
0s
0t
0u
0v
1w
0x
0y
0z
0{
0|
0}
0~
0!!
0"!
0#!
0$!
1%!
1&!
0'!
0(!
0)!
0*!
0+!
0/!
0.!
0-!
0,!
07!
06!
05!
04!
z3!
z2!
z1!
z0!
0:!
09!
08!
0>!
0=!
0<!
0;!
0F!
0E!
0D!
0C!
zB!
zA!
z@!
z?!
$end
#5000
1!
1o
1p
#10000
0!
0o
0p
1:!
1x
1s
0q
0%!
1"!
0w
0S
1^
0]
#15000
1!
1o
1p
1/!
1f
1z
0x
#20000
0!
0o
0p
0:!
19!
0&!
0z
1x
1q
0"!
1u
1J
0^
1T
#25000
1!
1o
1p
#30000
0!
0o
0p
1:!
1&!
1t
0s
0q
1(!
1w
0u
0J
1S
1I
0T
#35000
1!
1o
1p
#40000
0!
0o
0p
0:!
09!
18!
0&!
1q
0(!
1'!
0w
0S
1%
0I
1T
#45000
1!
1o
1p
#50000
0!
0o
0p
1:!
1&!
0t
0q
0'!
0%
0T
#55000
1!
1o
1p
#60000
0!
0o
0p
0:!
08!
1q
1%!
1y
1w
1S
1H
1]
#65000
1!
1o
1p
1>!
1\
#70000
0!
0o
0p
1:!
1z
0x
1s
0q
0%!
1"!
0y
0w
0S
0H
1^
0]
#75000
1!
1o
1p
1.!
0/!
0f
1e
1x
#80000
0!
0o
0p
0:!
19!
0&!
0x
1q
0"!
1y
1u
1J
1H
0^
1T
#85000
1!
1o
1p
1v
17!
1R
#90000
0!
0o
0p
1:!
1&!
1t
0s
0q
1(!
1w
0u
0J
1S
1I
0T
#95000
1!
1o
1p
#100000
0!
0o
0p
0:!
09!
18!
0&!
1q
0(!
1'!
0w
0S
1%
0I
1T
#105000
1!
1o
1p
1F!
1-
16
#110000
0!
0o
0p
1:!
1&!
0t
0q
0'!
0y
0H
0%
0T
#115000
1!
1o
1p
#120000
0!
0o
0p
0:!
08!
1q
1%!
1{
1w
1S
1G
1]
1*!
#125000
1!
1o
1p
1=!
1)!
0>!
0\
1[
#130000
0!
0o
0p
1:!
1x
1s
0q
0%!
1"!
0{
0w
0S
0G
1^
0]
0*!
#135000
1!
1o
1p
1/!
1f
1|
0z
0x
#140000
0!
0o
0p
0:!
19!
0&!
0|
1z
1x
1q
0"!
1{
1u
1J
1G
0^
1T
1*!
#145000
1!
1o
1p
0v
07!
16!
1Q
0R
#150000
0!
0o
0p
1:!
1&!
1t
0s
0q
1(!
1w
0u
0J
1S
1I
0T
#155000
1!
1o
1p
#160000
0!
0o
0p
0:!
09!
18!
0&!
1q
0(!
1'!
0w
0S
1%
0I
1T
#165000
1!
1o
1p
1E!
0F!
0-
06
1,
15
#170000
0!
0o
0p
1:!
1&!
0t
0q
0'!
0{
0G
0%
0T
0*!
#175000
1!
1o
1p
#180000
0!
0o
0p
0:!
08!
1q
1%!
1{
1y
1w
1S
1H
1G
1]
1*!
#185000
1!
1o
1p
1>!
1\
#190000
0!
0o
0p
1:!
1|
0z
0x
1s
0q
0%!
1"!
0{
0y
0w
0S
0H
0G
1^
0]
0*!
#195000
1!
1o
1p
1-!
0.!
0/!
0f
0e
1d
1x
#200000
0!
0o
0p
0:!
19!
0&!
0x
1q
0"!
1{
1y
1u
1J
1H
1G
0^
1T
1*!
#205000
1!
1o
1p
1v
17!
1R
#210000
0!
0o
0p
1:!
1&!
1t
0s
0q
1(!
1w
0u
0J
1S
1I
0T
#215000
1!
1o
1p
#220000
0!
0o
0p
0:!
09!
18!
0&!
1q
0(!
1'!
0w
0S
1%
0I
1T
#225000
1!
1o
1p
1F!
1-
16
#230000
0!
0o
0p
1:!
1&!
0t
0q
0'!
0{
0y
0H
0G
0%
0T
0*!
#235000
1!
1o
1p
#240000
0!
0o
0p
0:!
08!
1q
1%!
1}
1w
1S
1F
1]
#245000
1!
1o
1p
0=!
0)!
1<!
0>!
0\
1Z
0[
#250000
0!
0o
0p
1:!
1x
1s
0q
0%!
1"!
0}
0w
0S
0F
1^
0]
#255000
1!
1o
1p
1/!
1f
1z
0x
#260000
0!
0o
0p
0:!
19!
0&!
0z
1x
1q
0"!
1}
1u
1J
1F
0^
1T
#265000
1!
1o
1p
0v
07!
15!
06!
0Q
1P
0R
#270000
0!
0o
0p
1:!
1&!
1t
0s
0q
1(!
1w
0u
0J
1S
1I
0T
#275000
1!
1o
1p
#280000
0!
0o
0p
0:!
09!
18!
0&!
1q
0(!
1'!
0w
0S
1%
0I
1T
#285000
1!
1o
1p
1D!
0E!
0F!
0-
06
0,
05
1+
14
#290000
0!
0o
0p
1:!
1&!
0t
0q
0'!
0}
0F
0%
0T
#295000
1!
1o
1p
#300000
0!
0o
0p
0:!
08!
1q
1%!
1}
1y
1w
1S
1H
1F
1]
#305000
1!
1o
1p
1>!
1\
#310000
0!
0o
0p
1:!
1z
0x
1s
0q
0%!
1"!
0}
0y
0w
0S
0H
0F
1^
0]
#315000
1!
1o
1p
1.!
0/!
0f
1e
1x
#320000
0!
0o
0p
0:!
19!
0&!
0x
1q
0"!
1}
1y
1u
1J
1H
1F
0^
1T
#325000
1!
1o
1p
1v
17!
1R
#330000
0!
0o
0p
1:!
1&!
1t
0s
0q
1(!
1w
0u
0J
1S
1I
0T
#335000
1!
1o
1p
#340000
0!
0o
0p
0:!
09!
18!
0&!
1q
0(!
1'!
0w
0S
1%
0I
1T
#345000
1!
1o
1p
1F!
1-
16
#350000
0!
0o
0p
1:!
1&!
0t
0q
0'!
0}
0y
0H
0F
0%
0T
#355000
1!
1o
1p
#360000
0!
0o
0p
0:!
08!
1q
1%!
1}
1{
1w
1S
1G
1F
1]
1*!
#365000
1!
1o
1p
1=!
1)!
0>!
0\
1[
#370000
0!
0o
0p
1:!
1x
1s
0q
0%!
1"!
0}
0{
0w
0S
0G
0F
1^
0]
0*!
#375000
1!
1o
1p
1/!
1f
1#!
0|
0z
0x
#380000
0!
0o
0p
0:!
19!
0&!
1|
1z
1x
1q
0"!
1}
1{
1u
1J
1G
1F
0^
1T
0#!
1*!
#385000
1!
1o
1p
0v
07!
16!
1Q
0R
#390000
0!
0o
0p
1:!
1&!
1t
0s
0q
1(!
1w
0u
0J
1S
1I
0T
#395000
1!
1o
1p
#400000
0!
0o
0p
0:!
09!
18!
0&!
1q
0(!
1'!
0w
0S
1%
0I
1T
#405000
1!
1o
1p
1E!
0F!
0-
06
1,
15
#410000
0!
0o
0p
1:!
1&!
0t
0q
0'!
0}
0{
0G
0F
0%
0T
0*!
#415000
1!
1o
1p
#420000
0!
0o
0p
0:!
08!
1q
1%!
1}
1{
1y
1w
1S
1H
1G
1F
1]
1*!
#425000
1!
1o
1p
1>!
1\
#430000
0!
0o
0p
1:!
0|
0z
0x
1s
0q
0%!
1"!
0}
0{
0y
0w
0S
0H
0G
0F
1^
0]
1#!
0*!
#435000
1!
1o
1p
1,!
0-!
0.!
0/!
0f
0e
0d
1c
1x
#440000
0!
0o
0p
0:!
19!
0&!
0x
1q
0"!
1}
1{
1y
1u
1J
1H
1G
1F
0^
1T
1*!
#445000
1!
1o
1p
1v
17!
1R
#450000
0!
0o
0p
1:!
1&!
1t
0s
0q
1(!
1w
0u
0J
1S
1I
0T
#455000
1!
1o
1p
#460000
0!
0o
0p
0:!
09!
18!
0&!
1q
0(!
1'!
0w
0S
1%
0I
1T
#465000
1!
1o
1p
1F!
1-
16
#470000
0!
0o
0p
1:!
1&!
0t
0q
0'!
0}
0{
0y
0H
0G
0F
0%
0T
0*!
#475000
1!
1o
1p
#480000
0!
0o
0p
0:!
08!
1q
1%!
1$!
1w
1S
1E
1]
1+!
1~
#485000
1!
1o
1p
0=!
0)!
1;!
0<!
0>!
0\
0Z
1Y
0[
#490000
0!
0o
0p
1:!
1x
1s
0q
0%!
0$!
1"!
0w
0S
1^
0E
0]
0+!
0~
#495000
1!
1o
1p
1/!
1f
1z
0x
#500000
0!
0o
0p
0:!
19!
0&!
0z
1x
1q
1$!
0"!
1u
1J
0^
1E
1T
1+!
1~
#505000
1!
1o
1p
1!!
0v
14!
07!
05!
06!
0Q
0P
0R
1O
#510000
0!
0o
0p
1:!
1&!
1t
0s
0q
1(!
1w
0u
0J
1S
1I
0T
#515000
1!
1o
1p
#520000
0!
0o
0p
0:!
09!
18!
0&!
1q
0(!
1'!
0w
0S
1%
0I
1T
#525000
1!
1o
1p
1C!
0D!
0E!
0F!
0-
06
0,
05
0+
04
1*
13
#530000
0!
0o
0p
1:!
1&!
0t
0q
0'!
0$!
0E
0%
0T
0+!
0~
#535000
1!
1o
1p
#540000
0!
0o
0p
0:!
08!
1q
1%!
1$!
1y
1w
1S
1H
1E
1]
1+!
1~
#545000
1!
1o
1p
1>!
1\
#550000
0!
0o
0p
1:!
1z
0x
1s
0q
0%!
0$!
1"!
0y
0w
0S
0H
1^
0E
0]
0+!
0~
#555000
1!
1o
1p
1.!
0/!
0f
1e
1x
#560000
0!
0o
0p
0:!
19!
0&!
0x
1q
1$!
0"!
1y
1u
1J
1H
0^
1E
1T
1+!
1~
#565000
1!
1o
1p
1v
17!
1R
#570000
0!
0o
0p
1:!
1&!
1t
0s
0q
1(!
1w
0u
0J
1S
1I
0T
#575000
1!
1o
1p
#580000
0!
0o
0p
0:!
09!
18!
0&!
1q
0(!
1'!
0w
0S
1%
0I
1T
#585000
1!
1o
1p
1F!
1-
16
#590000
0!
0o
0p
1:!
1&!
0t
0q
0'!
0$!
0y
0H
0E
0%
0T
0+!
0~
#595000
1!
1o
1p
#600000
0!
0o
0p
0:!
08!
1q
1%!
1$!
1{
1w
1S
1G
1E
1]
1*!
1+!
1~
#605000
1!
1o
1p
1=!
1)!
0>!
0\
1[
#610000
0!
0o
0p
1:!
1x
1s
0q
0%!
0$!
1"!
0{
0w
0S
0G
1^
0E
0]
0*!
0+!
0~
#615000
1!
1o
1p
1/!
1f
1|
0z
0x
#620000
0!
0o
0p
0:!
19!
0&!
0|
1z
1x
1q
1$!
0"!
1{
1u
1J
1G
0^
1E
1T
1*!
1+!
1~
#625000
1!
1o
1p
0v
07!
16!
1Q
0R
#630000
0!
0o
0p
1:!
1&!
1t
0s
0q
1(!
1w
0u
0J
1S
1I
0T
#635000
1!
1o
1p
#640000
0!
0o
0p
0:!
09!
18!
0&!
1q
0(!
1'!
0w
0S
1%
0I
1T
#645000
1!
1o
1p
1E!
0F!
0-
06
1,
15
#650000
0!
0o
0p
1:!
1&!
0t
0q
0'!
0$!
0{
0G
0E
0%
0T
0*!
0+!
0~
#655000
1!
1o
1p
#660000
0!
0o
0p
0:!
08!
1q
1%!
1$!
1{
1y
1w
1S
1H
1G
1E
1]
1*!
1+!
1~
#665000
1!
1o
1p
1>!
1\
#670000
0!
0o
0p
1:!
1|
0z
0x
1s
0q
0%!
0$!
1"!
0{
0y
0w
0S
0H
0G
1^
0E
0]
0*!
0+!
0~
#675000
1!
1o
1p
1-!
0.!
0/!
0f
0e
1d
1x
#680000
0!
0o
0p
0:!
19!
0&!
0x
1q
1$!
0"!
1{
1y
1u
1J
1H
1G
0^
1E
1T
1*!
1+!
1~
#685000
1!
1o
1p
1v
17!
1R
#690000
0!
0o
0p
1:!
1&!
1t
0s
0q
1(!
1w
0u
0J
1S
1I
0T
#695000
1!
1o
1p
#700000
0!
0o
0p
0:!
09!
18!
0&!
1q
0(!
1'!
0w
0S
1%
0I
1T
#705000
1!
1o
1p
1F!
1-
16
#710000
0!
0o
0p
1:!
1&!
0t
0q
0'!
0$!
0{
0y
0H
0G
0E
0%
0T
0*!
0+!
0~
#715000
1!
1o
1p
#720000
0!
0o
0p
0:!
08!
1q
1%!
1$!
1}
1w
1S
1F
1E
1]
1+!
1~
#725000
1!
1o
1p
0=!
0)!
1<!
0>!
0\
1Z
0[
#730000
0!
0o
0p
1:!
1x
1s
0q
0%!
0$!
1"!
0}
0w
0S
0F
1^
0E
0]
0+!
0~
#735000
1!
1o
1p
1/!
1f
1z
0x
#740000
0!
0o
0p
0:!
19!
0&!
0z
1x
1q
1$!
0"!
1}
1u
1J
1F
0^
1E
1T
1+!
1~
#745000
1!
1o
1p
0v
07!
15!
06!
0Q
1P
0R
#750000
0!
0o
0p
1:!
1&!
1t
0s
0q
1(!
1w
0u
0J
1S
1I
0T
#755000
1!
1o
1p
#760000
0!
0o
0p
0:!
09!
18!
0&!
1q
0(!
1'!
0w
0S
1%
0I
1T
#765000
1!
1o
1p
1D!
0E!
0F!
0-
06
0,
05
1+
14
#770000
0!
0o
0p
1:!
1&!
0t
0q
0'!
0$!
0}
0F
0E
0%
0T
0+!
0~
#775000
1!
1o
1p
#780000
0!
0o
0p
0:!
08!
1q
1%!
1$!
1}
1y
1w
1S
1H
1F
1E
1]
1+!
1~
#785000
1!
1o
1p
1>!
1\
#790000
0!
0o
0p
1:!
1z
0x
1s
0q
0%!
0$!
1"!
0}
0y
0w
0S
0H
0F
1^
0E
0]
0+!
0~
#795000
1!
1o
1p
1.!
0/!
0f
1e
1x
#800000
0!
0o
0p
0:!
19!
0&!
0x
1q
1$!
0"!
1}
1y
1u
1J
1H
1F
0^
1E
1T
1+!
1~
#805000
1!
1o
1p
1v
17!
1R
#810000
0!
0o
0p
1:!
1&!
1t
0s
0q
1(!
1w
0u
0J
1S
1I
0T
#815000
1!
1o
1p
#820000
0!
0o
0p
0:!
09!
18!
0&!
1q
0(!
1'!
0w
0S
1%
0I
1T
#825000
1!
1o
1p
1F!
1-
16
#830000
0!
0o
0p
1:!
1&!
0t
0q
0'!
0$!
0}
0y
0H
0F
0E
0%
0T
0+!
0~
#835000
1!
1o
1p
#840000
0!
0o
0p
0:!
08!
1q
1%!
1$!
1}
1{
1w
1S
1G
1F
1E
1]
1*!
1+!
1~
#845000
1!
1o
1p
1=!
1)!
0>!
0\
1[
#850000
0!
0o
0p
1:!
1x
1s
0q
0%!
0$!
1"!
0}
0{
0w
0S
0G
0F
1^
0E
0]
0*!
0+!
0~
#855000
1!
1o
1p
1/!
1f
0#!
0|
0z
0x
#860000
0!
0o
0p
0:!
19!
0&!
1|
1z
1x
1q
1$!
0"!
1}
1{
1u
1J
1G
1F
0^
1E
1T
1#!
1*!
1+!
1~
#865000
1!
1o
1p
0v
07!
16!
1Q
0R
#870000
0!
0o
0p
1:!
1&!
1t
0s
0q
1(!
1w
0u
0J
1S
1I
0T
#875000
1!
1o
1p
#880000
0!
0o
0p
0:!
09!
18!
0&!
1q
0(!
1'!
0w
0S
1%
0I
1T
#885000
1!
1o
1p
1E!
0F!
0-
06
1,
15
#890000
0!
0o
0p
1:!
1&!
0t
0q
0'!
0$!
0}
0{
0G
0F
0E
0%
0T
0*!
0+!
0~
#895000
1!
1o
1p
#900000
0!
0o
0p
0:!
08!
1q
1%!
1$!
1}
1{
1y
1w
1S
1H
1G
1F
1E
1]
1*!
1+!
1~
#905000
1!
1o
1p
1>!
1\
#910000
0!
0o
0p
1:!
0|
0z
0x
1s
0q
0%!
0$!
1"!
0}
0{
0y
0w
0S
0H
0G
0F
1^
0E
0]
0#!
0*!
0+!
0~
#915000
1!
1o
1p
0,!
0-!
0.!
0/!
0f
0e
0d
0c
1x
#920000
0!
0o
0p
0:!
19!
0&!
0x
1q
1$!
0"!
1}
1{
1y
1u
1J
1H
1G
1F
0^
1E
1T
1*!
1+!
1~
#925000
1!
1o
1p
1v
17!
1R
#930000
0!
0o
0p
1:!
1&!
1t
0s
0q
1(!
1w
0u
0J
1S
1I
0T
#935000
1!
1o
1p
#940000
0!
0o
0p
0:!
09!
18!
0&!
1q
0(!
1'!
0w
0S
1%
0I
1T
#945000
1!
1o
1p
1F!
1-
16
#950000
0!
0o
0p
1:!
1&!
0t
0q
0'!
0$!
0}
0{
0y
0H
0G
0F
0E
0%
0T
0*!
0+!
0~
#955000
1!
1o
1p
#960000
0!
0o
0p
0:!
08!
1q
1%!
1w
1S
1]
#965000
1!
1o
1p
0=!
0)!
0;!
0<!
0>!
0\
0Z
0Y
0[
#970000
0!
0o
0p
1:!
1x
1s
0q
0%!
1"!
0w
0S
1^
0]
#975000
1!
1o
1p
1/!
1f
1z
0x
#980000
0!
0o
0p
0:!
19!
0&!
0z
1x
1q
0"!
1u
1J
0^
1T
#985000
1!
1o
1p
0!!
0v
04!
07!
05!
06!
0Q
0P
0R
0O
#990000
0!
0o
0p
1:!
1&!
1t
0s
0q
1(!
1w
0u
0J
1S
1I
0T
