simulation/qsim/sap.msim.vcd
$comment
	File created using the following command:
		vcd file sap.msim.vcd -direction
$end
$date
	Thu Oct 26 19:11:26 2023
$end
$version
	ModelSim Version 2020.1
$end
$timescale
	1ps
$end

$scope module top_wf_vlg_vec_tst $end
$var reg 1 ! clk_in $end
$var reg 1 " hlt_in $end
$var reg 1 # rst $end
$var wire 1 $ a_en $end
$var wire 1 % a_load $end
$var wire 1 & a_out [7] $end
$var wire 1 ' a_out [6] $end
$var wire 1 ( a_out [5] $end
$var wire 1 ) a_out [4] $end
$var wire 1 * a_out [3] $end
$var wire 1 + a_out [2] $end
$var wire 1 , a_out [1] $end
$var wire 1 - a_out [0] $end
$var wire 1 . adder_en $end
$var wire 1 / adder_out [7] $end
$var wire 1 0 adder_out [6] $end
$var wire 1 1 adder_out [5] $end
$var wire 1 2 adder_out [4] $end
$var wire 1 3 adder_out [3] $end
$var wire 1 4 adder_out [2] $end
$var wire 1 5 adder_out [1] $end
$var wire 1 6 adder_out [0] $end
$var wire 1 7 adder_sub $end
$var wire 1 8 b_load $end
$var wire 1 9 b_out [7] $end
$var wire 1 : b_out [6] $end
$var wire 1 ; b_out [5] $end
$var wire 1 < b_out [4] $end
$var wire 1 = b_out [3] $end
$var wire 1 > b_out [2] $end
$var wire 1 ? b_out [1] $end
$var wire 1 @ b_out [0] $end
$var wire 1 A bus [7] $end
$var wire 1 B bus [6] $end
$var wire 1 C bus [5] $end
$var wire 1 D bus [4] $end
$var wire 1 E bus [3] $end
$var wire 1 F bus [2] $end
$var wire 1 G bus [1] $end
$var wire 1 H bus [0] $end
$var wire 1 I ir_en $end
$var wire 1 J ir_load $end
$var wire 1 K ir_out [7] $end
$var wire 1 L ir_out [6] $end
$var wire 1 M ir_out [5] $end
$var wire 1 N ir_out [4] $end
$var wire 1 O ir_out [3] $end
$var wire 1 P ir_out [2] $end
$var wire 1 Q ir_out [1] $end
$var wire 1 R ir_out [0] $end
$var wire 1 S mar_load $end
$var wire 1 T mem_en $end
$var wire 1 U mem_out [7] $end
$var wire 1 V mem_out [6] $end
$var wire 1 W mem_out [5] $end
$var wire 1 X mem_out [4] $end
$var wire 1 Y mem_out [3] $end
$var wire 1 Z mem_out [2] $end
$var wire 1 [ mem_out [1] $end
$var wire 1 \ mem_out [0] $end
$var wire 1 ] pc_en $end
$var wire 1 ^ pc_inc $end
$var wire 1 _ pc_out [7] $end
$var wire 1 ` pc_out [6] $end
$var wire 1 a pc_out [5] $end
$var wire 1 b pc_out [4] $end
$var wire 1 c pc_out [3] $end
$var wire 1 d pc_out [2] $end
$var wire 1 e pc_out [1] $end
$var wire 1 f pc_out [0] $end

$scope module i1 $end
$var wire 1 g gnd $end
$var wire 1 h vcc $end
$var wire 1 i unknown $end
$var tri1 1 j devclrn $end
$var tri1 1 k devpor $end
$var tri1 1 l devoe $end
$var wire 1 m ~QUARTUS_CREATED_GND~I_combout $end
$var wire 1 n hlt_in~input_o $end
$var wire 1 o clk_in~input_o $end
$var wire 1 p clk_inst|clk_out~combout $end
$var wire 1 q controller_inst|stage[0]~2_combout $end
$var wire 1 r rst~input_o $end
$var wire 1 s controller_inst|stage~1_combout $end
$var wire 1 t controller_inst|stage~0_combout $end
$var wire 1 u controller_inst|Decoder1~2_combout $end
$var wire 1 v ir_inst|ir[0]~DUPLICATE_q $end
$var wire 1 w controller_inst|Mux0~0_combout $end
$var wire 1 x pc_inst|pc_value[0]~0_combout $end
$var wire 1 y Selector7~0_combout $end
$var wire 1 z pc_inst|pc_value[1]~1_combout $end
$var wire 1 { Selector6~0_combout $end
$var wire 1 | pc_inst|pc_value[2]~2_combout $end
$var wire 1 } Selector5~0_combout $end
$var wire 1 ~ mem_inst|mar[3]~feeder_combout $end
$var wire 1 !! ir_inst|ir[3]~DUPLICATE_q $end
$var wire 1 "! controller_inst|Decoder1~0_combout $end
$var wire 1 #! pc_inst|pc_value[3]~3_combout $end
$var wire 1 $! Selector4~0_combout $end
$var wire 1 %! controller_inst|Decoder1~1_combout $end
$var wire 1 &! controller_inst|Mux1~0_combout $end
$var wire 1 '! controller_inst|Mux2~0_combout $end
$var wire 1 (! controller_inst|Decoder1~3_combout $end
$var wire 1 )! mem_inst|mar[1]~DUPLICATE_q $end
$var wire 1 *! reg_a_inst|reg_value_a[1]~feeder_combout $end
$var wire 1 +! reg_a_inst|reg_value_a[3]~feeder_combout $end
$var wire 1 ,! pc_inst|pc_value [3] $end
$var wire 1 -! pc_inst|pc_value [2] $end
$var wire 1 .! pc_inst|pc_value [1] $end
$var wire 1 /! pc_inst|pc_value [0] $end
$var wire 1 0! ir_inst|ir [7] $end
$var wire 1 1! ir_inst|ir [6] $end
$var wire 1 2! ir_inst|ir [5] $end
$var wire 1 3! ir_inst|ir [4] $end
$var wire 1 4! ir_inst|ir [3] $end
$var wire 1 5! ir_inst|ir [2] $end
$var wire 1 6! ir_inst|ir [1] $end
$var wire 1 7! ir_inst|ir [0] $end
$var wire 1 8! controller_inst|stage [2] $end
$var wire 1 9! controller_inst|stage [1] $end
$var wire 1 :! controller_inst|stage [0] $end
$var wire 1 ;! mem_inst|mar [3] $end
$var wire 1 <! mem_inst|mar [2] $end
$var wire 1 =! mem_inst|mar [1] $end
$var wire 1 >! mem_inst|mar [0] $end
$var wire 1 ?! reg_a_inst|reg_value_a [7] $end
$var wire 1 @! reg_a_inst|reg_value_a [6] $end
$var wire 1 A! reg_a_inst|reg_value_a [5] $end
$var wire 1 B! reg_a_inst|reg_value_a [4] $end
$var wire 1 C! reg_a_inst|reg_value_a [3] $end
$var wire 1 D! reg_a_inst|reg_value_a [2] $end
$var wire 1 E! reg_a_inst|reg_value_a [1] $end
$var wire 1 F! reg_a_inst|reg_value_a [0] $end
$upscope $end
$upscope $end
$enddefinitions $end
#0
$dumpvars
0!
0"
0#
0$
0%
0-
0,
0+
0*
0)
0(
0'
0&
0.
06
05
04
03
02
01
00
0/
07
08
0@
0?
0>
0=
0<
0;
0:
09
0H
0G
0F
0E
0D
0C
0B
0A
0I
0J
0R
0Q
0P
0O
0N
0M
0L
0K
1S
0T
0\
0[
0Z
0Y
0X
0W
0V
0U
1]
0^
0f
0e
0d
0c
0b
0a
0`
0_
0g
1h
xi
1j
1k
1l
0m
0n
0o
0p
1q
0r
0s
0t
0u
0v
1w
0x
0y
0z
0{
0|
0}
0~
0!!
0"!
0#!
0$!
1%!
1&!
0'!
0(!
0)!
0*!
0+!
0/!
0.!
0-!
0,!
07!
06!
05!
04!
z3!
z2!
z1!
z0!
0:!
09!
08!
0>!
0=!
0<!
0;!
0F!
0E!
0D!
0C!
zB!
zA!
z@!
z?!
$end
#2500
1!
1o
1p
#5000
0!
0o
0p
1:!
1x
1s
0q
0%!
1"!
0w
0S
1^
0]
#7500
1!
1o
1p
1/!
1f
1z
0x
#10000
0!
0o
0p
0:!
19!
0&!
0z
1x
1q
0"!
1u
1J
0^
1T
#12500
1!
1o
1p
#15000
0!
0o
0p
1:!
1&!
1t
0s
0q
1(!
1w
0u
0J
1S
1I
0T
#17500
1!
1o
1p
#20000
0!
0o
0p
0:!
09!
18!
0&!
1q
0(!
1'!
0w
0S
1%
0I
1T
#22500
1!
1o
1p
#25000
0!
0o
0p
1:!
1&!
0t
0q
0'!
0%
0T
#27500
1!
1o
1p
#30000
0!
0o
0p
0:!
08!
1q
1%!
1y
1w
1S
1H
1]
#32500
1!
1o
1p
1>!
1\
#35000
0!
0o
0p
1:!
1z
0x
1s
0q
0%!
1"!
0y
0w
0S
0H
1^
0]
#37500
1!
1o
1p
1.!
0/!
0f
1e
1x
#40000
0!
0o
0p
0:!
19!
0&!
0x
1q
0"!
1y
1u
1J
1H
0^
1T
#42500
1!
1o
1p
1v
17!
1R
#45000
0!
0o
0p
1:!
1&!
1t
0s
0q
1(!
1w
0u
0J
1S
1I
0T
#47500
1!
1o
1p
#50000
0!
0o
0p
0:!
09!
18!
0&!
1q
0(!
1'!
0w
0S
1%
0I
1T
#52500
1!
1o
1p
1F!
1-
16
#55000
0!
0o
0p
1:!
1&!
0t
0q
0'!
0y
0H
0%
0T
#57500
1!
1o
1p
#60000
0!
0o
0p
0:!
08!
1q
1%!
1{
1w
1S
1G
1]
1*!
#62500
1!
1o
1p
1=!
1)!
0>!
0\
1[
#65000
0!
0o
0p
1:!
1x
1s
0q
0%!
1"!
0{
0w
0S
0G
1^
0]
0*!
#67500
1!
1o
1p
1/!
1f
1|
0z
0x
#70000
0!
0o
0p
0:!
19!
0&!
0|
1z
1x
1q
0"!
1{
1u
1J
1G
0^
1T
1*!
#72500
1!
1o
1p
0v
07!
16!
1Q
0R
#75000
0!
0o
0p
1:!
1&!
1t
0s
0q
1(!
1w
0u
0J
1S
1I
0T
#77500
1!
1o
1p
#80000
0!
0o
0p
0:!
09!
18!
0&!
1q
0(!
1'!
0w
0S
1%
0I
1T
#82500
1!
1o
1p
1E!
0F!
0-
06
1,
15
#85000
0!
0o
0p
1:!
1&!
0t
0q
0'!
0{
0G
0%
0T
0*!
#87500
1!
1o
1p
#90000
0!
0o
0p
0:!
08!
1q
1%!
1{
1y
1w
1S
1H
1G
1]
1*!
#92500
1!
1o
1p
1>!
1\
#95000
0!
0o
0p
1:!
1|
0z
0x
1s
0q
0%!
1"!
0{
0y
0w
0S
0H
0G
1^
0]
0*!
#97500
1!
1o
1p
1-!
0.!
0/!
0f
0e
1d
1x
#100000
0!
0o
0p
0:!
19!
0&!
0x
1q
0"!
1{
1y
1u
1J
1H
1G
0^
1T
1*!
#102500
1!
1o
1p
1v
17!
1R
#105000
0!
0o
0p
1:!
1&!
1t
0s
0q
1(!
1w
0u
0J
1S
1I
0T
#107500
1!
1o
1p
#110000
0!
0o
0p
0:!
09!
18!
0&!
1q
0(!
1'!
0w
0S
1%
0I
1T
#112500
1!
1o
1p
1F!
1-
16
#115000
0!
0o
0p
1:!
1&!
0t
0q
0'!
0{
0y
0H
0G
0%
0T
0*!
#117500
1!
1o
1p
#120000
0!
0o
0p
0:!
08!
1q
1%!
1}
1w
1S
1F
1]
#122500
1!
1o
1p
0=!
0)!
1<!
0>!
0\
1Z
0[
#125000
0!
0o
0p
1:!
1x
1s
0q
0%!
1"!
0}
0w
0S
0F
1^
0]
#127500
1!
1o
1p
1/!
1f
1z
0x
#130000
0!
0o
0p
0:!
19!
0&!
0z
1x
1q
0"!
1}
1u
1J
1F
0^
1T
#132500
1!
1o
1p
0v
07!
15!
06!
0Q
1P
0R
#135000
0!
0o
0p
1:!
1&!
1t
0s
0q
1(!
1w
0u
0J
1S
1I
0T
#137500
1!
1o
1p
#140000
0!
0o
0p
0:!
09!
18!
0&!
1q
0(!
1'!
0w
0S
1%
0I
1T
#142500
1!
1o
1p
1D!
0E!
0F!
0-
06
0,
05
1+
14
#145000
0!
0o
0p
1:!
1&!
0t
0q
0'!
0}
0F
0%
0T
#147500
1!
1o
1p
#150000
0!
0o
0p
0:!
08!
1q
1%!
1}
1y
1w
1S
1H
1F
1]
#152500
1!
1o
1p
1>!
1\
#155000
0!
0o
0p
1:!
1z
0x
1s
0q
0%!
1"!
0}
0y
0w
0S
0H
0F
1^
0]
#157500
1!
1o
1p
1.!
0/!
0f
1e
1x
#160000
0!
0o
0p
0:!
19!
0&!
0x
1q
0"!
1}
1y
1u
1J
1H
1F
0^
1T
#162500
1!
1o
1p
1v
17!
1R
#165000
0!
0o
0p
1:!
1&!
1t
0s
0q
1(!
1w
0u
0J
1S
1I
0T
#167500
1!
1o
1p
#170000
0!
0o
0p
0:!
09!
18!
0&!
1q
0(!
1'!
0w
0S
1%
0I
1T
#172500
1!
1o
1p
1F!
1-
16
#175000
0!
0o
0p
1:!
1&!
0t
0q
0'!
0}
0y
0H
0F
0%
0T
#177500
1!
1o
1p
#180000
0!
0o
0p
0:!
08!
1q
1%!
1}
1{
1w
1S
1G
1F
1]
1*!
#182500
1!
1o
1p
1=!
1)!
0>!
0\
1[
#185000
0!
0o
0p
1:!
1x
1s
0q
0%!
1"!
0}
0{
0w
0S
0G
0F
1^
0]
0*!
#187500
1!
1o
1p
1/!
1f
1#!
0|
0z
0x
#190000
0!
0o
0p
0:!
19!
0&!
1|
1z
1x
1q
0"!
1}
1{
1u
1J
1G
1F
0^
1T
0#!
1*!
#192500
1!
1o
1p
0v
07!
16!
1Q
0R
#195000
0!
0o
0p
1:!
1&!
1t
0s
0q
1(!
1w
0u
0J
1S
1I
0T
#197500
1!
1o
1p
#200000
0!
0o
0p
0:!
09!
18!
0&!
1q
0(!
1'!
0w
0S
1%
0I
1T
#202500
1!
1o
1p
1E!
0F!
0-
06
1,
15
#205000
0!
0o
0p
1:!
1&!
0t
0q
0'!
0}
0{
0G
0F
0%
0T
0*!
#207500
1!
1o
1p
#210000
0!
0o
0p
0:!
08!
1q
1%!
1}
1{
1y
1w
1S
1H
1G
1F
1]
1*!
#212500
1!
1o
1p
1>!
1\
#215000
0!
0o
0p
1:!
0|
0z
0x
1s
0q
0%!
1"!
0}
0{
0y
0w
0S
0H
0G
0F
1^
0]
1#!
0*!
#217500
1!
1o
1p
1,!
0-!
0.!
0/!
0f
0e
0d
1c
1x
#220000
0!
0o
0p
0:!
19!
0&!
0x
1q
0"!
1}
1{
1y
1u
1J
1H
1G
1F
0^
1T
1*!
#222500
1!
1o
1p
1v
17!
1R
#225000
0!
0o
0p
1:!
1&!
1t
0s
0q
1(!
1w
0u
0J
1S
1I
0T
#227500
1!
1o
1p
#230000
0!
0o
0p
0:!
09!
18!
0&!
1q
0(!
1'!
0w
0S
1%
0I
1T
#232500
1!
1o
1p
1F!
1-
16
#235000
0!
0o
0p
1:!
1&!
0t
0q
0'!
0}
0{
0y
0H
0G
0F
0%
0T
0*!
#237500
1!
1o
1p
#240000
0!
0o
0p
0:!
08!
1q
1%!
1$!
1w
1S
1E
1]
1+!
1~
#242500
1!
1o
1p
0=!
0)!
1;!
0<!
0>!
0\
0Z
1Y
0[
#245000
0!
0o
0p
1:!
1x
1s
0q
0%!
0$!
1"!
0w
0S
1^
0E
0]
0+!
0~
#247500
1!
1o
1p
1/!
1f
1z
0x
#250000
0!
0o
0p
0:!
19!
0&!
0z
1x
1q
1$!
0"!
1u
1J
0^
1E
1T
1+!
1~
#252500
1!
1o
1p
1!!
0v
14!
07!
05!
06!
0Q
0P
0R
1O
#255000
0!
0o
0p
1:!
1&!
1t
0s
0q
1(!
1w
0u
0J
1S
1I
0T
#257500
1!
1o
1p
#260000
0!
0o
0p
0:!
09!
18!
0&!
1q
0(!
1'!
0w
0S
1%
0I
1T
#262500
1!
1o
1p
1C!
0D!
0E!
0F!
0-
06
0,
05
0+
04
1*
13
#265000
0!
0o
0p
1:!
1&!
0t
0q
0'!
0$!
0E
0%
0T
0+!
0~
#267500
1!
1o
1p
#270000
0!
0o
0p
0:!
08!
1q
1%!
1$!
1y
1w
1S
1H
1E
1]
1+!
1~
#272500
1!
1o
1p
1>!
1\
#275000
0!
0o
0p
1:!
1z
0x
1s
0q
0%!
0$!
1"!
0y
0w
0S
0H
1^
0E
0]
0+!
0~
#277500
1!
1o
1p
1.!
0/!
0f
1e
1x
#280000
0!
0o
0p
0:!
19!
0&!
0x
1q
1$!
0"!
1y
1u
1J
1H
0^
1E
1T
1+!
1~
#282500
1!
1o
1p
1v
17!
1R
#285000
0!
0o
0p
1:!
1&!
1t
0s
0q
1(!
1w
0u
0J
1S
1I
0T
#287500
1!
1o
1p
#290000
0!
0o
0p
0:!
09!
18!
0&!
1q
0(!
1'!
0w
0S
1%
0I
1T
#292500
1!
1o
1p
1F!
1-
16
#295000
0!
0o
0p
1:!
1&!
0t
0q
0'!
0$!
0y
0H
0E
0%
0T
0+!
0~
#297500
1!
1o
1p
#300000
0!
0o
0p
0:!
08!
1q
1%!
1$!
1{
1w
1S
1G
1E
1]
1*!
1+!
1~
#302500
1!
1o
1p
1=!
1)!
0>!
0\
1[
#305000
0!
0o
0p
1:!
1x
1s
0q
0%!
0$!
1"!
0{
0w
0S
0G
1^
0E
0]
0*!
0+!
0~
#307500
1!
1o
1p
1/!
1f
1|
0z
0x
#310000
0!
0o
0p
0:!
19!
0&!
0|
1z
1x
1q
1$!
0"!
1{
1u
1J
1G
0^
1E
1T
1*!
1+!
1~
#312500
1!
1o
1p
0v
07!
16!
1Q
0R
#315000
0!
0o
0p
1:!
1&!
1t
0s
0q
1(!
1w
0u
0J
1S
1I
0T
#317500
1!
1o
1p
#320000
0!
0o
0p
0:!
09!
18!
0&!
1q
0(!
1'!
0w
0S
1%
0I
1T
#322500
1!
1o
1p
1E!
0F!
0-
06
1,
15
#325000
0!
0o
0p
1:!
1&!
0t
0q
0'!
0$!
0{
0G
0E
0%
0T
0*!
0+!
0~
#327500
1!
1o
1p
#330000
0!
0o
0p
0:!
08!
1q
1%!
1$!
1{
1y
1w
1S
1H
1G
1E
1]
1*!
1+!
1~
#332500
1!
1o
1p
1>!
1\
#335000
0!
0o
0p
1:!
1|
0z
0x
1s
0q
0%!
0$!
1"!
0{
0y
0w
0S
0H
0G
1^
0E
0]
0*!
0+!
0~
#337500
1!
1o
1p
1-!
0.!
0/!
0f
0e
1d
1x
#340000
0!
0o
0p
0:!
19!
0&!
0x
1q
1$!
0"!
1{
1y
1u
1J
1H
1G
0^
1E
1T
1*!
1+!
1~
#342500
1!
1o
1p
1v
17!
1R
#345000
0!
0o
0p
1:!
1&!
1t
0s
0q
1(!
1w
0u
0J
1S
1I
0T
#347500
1!
1o
1p
#350000
0!
0o
0p
0:!
09!
18!
0&!
1q
0(!
1'!
0w
0S
1%
0I
1T
#352500
1!
1o
1p
1F!
1-
16
#355000
0!
0o
0p
1:!
1&!
0t
0q
0'!
0$!
0{
0y
0H
0G
0E
0%
0T
0*!
0+!
0~
#357500
1!
1o
1p
#360000
0!
0o
0p
0:!
08!
1q
1%!
1$!
1}
1w
1S
1F
1E
1]
1+!
1~
#362500
1!
1o
1p
0=!
0)!
1<!
0>!
0\
1Z
0[
#365000
0!
0o
0p
1:!
1x
1s
0q
0%!
0$!
1"!
0}
0w
0S
0F
1^
0E
0]
0+!
0~
#367500
1!
1o
1p
1/!
1f
1z
0x
#370000
0!
0o
0p
0:!
19!
0&!
0z
1x
1q
1$!
0"!
1}
1u
1J
1F
0^
1E
1T
1+!
1~
#372500
1!
1o
1p
0v
07!
15!
06!
0Q
1P
0R
#375000
0!
0o
0p
1:!
1&!
1t
0s
0q
1(!
1w
0u
0J
1S
1I
0T
#377500
1!
1o
1p
#380000
0!
0o
0p
0:!
09!
18!
0&!
1q
0(!
1'!
0w
0S
1%
0I
1T
#382500
1!
1o
1p
1D!
0E!
0F!
0-
06
0,
05
1+
14
#385000
0!
0o
0p
1:!
1&!
0t
0q
0'!
0$!
0}
0F
0E
0%
0T
0+!
0~
#387500
1!
1o
1p
#390000
0!
0o
0p
0:!
08!
1q
1%!
1$!
1}
1y
1w
1S
1H
1F
1E
1]
1+!
1~
#392500
1!
1o
1p
1>!
1\
#395000
0!
0o
0p
1:!
1z
0x
1s
0q
0%!
0$!
1"!
0}
0y
0w
0S
0H
0F
1^
0E
0]
0+!
0~
#397500
1!
1o
1p
1.!
0/!
0f
1e
1x
#400000
0!
0o
0p
0:!
19!
0&!
0x
1q
1$!
0"!
1}
1y
1u
1J
1H
1F
0^
1E
1T
1+!
1~
#402500
1!
1o
1p
1v
17!
1R
#405000
0!
0o
0p
1:!
1&!
1t
0s
0q
1(!
1w
0u
0J
1S
1I
0T
#407500
1!
1o
1p
#410000
0!
0o
0p
0:!
09!
18!
0&!
1q
0(!
1'!
0w
0S
1%
0I
1T
#412500
1!
1o
1p
1F!
1-
16
#415000
0!
0o
0p
1:!
1&!
0t
0q
0'!
0$!
0}
0y
0H
0F
0E
0%
0T
0+!
0~
#417500
1!
1o
1p
#420000
0!
0o
0p
0:!
08!
1q
1%!
1$!
1}
1{
1w
1S
1G
1F
1E
1]
1*!
1+!
1~
#422500
1!
1o
1p
1=!
1)!
0>!
0\
1[
#425000
0!
0o
0p
1:!
1x
1s
0q
0%!
0$!
1"!
0}
0{
0w
0S
0G
0F
1^
0E
0]
0*!
0+!
0~
#427500
1!
1o
1p
1/!
1f
0#!
0|
0z
0x
#430000
0!
0o
0p
0:!
19!
0&!
1|
1z
1x
1q
1$!
0"!
1}
1{
1u
1J
1G
1F
0^
1E
1T
1#!
1*!
1+!
1~
#432500
1!
1o
1p
0v
07!
16!
1Q
0R
#435000
0!
0o
0p
1:!
1&!
1t
0s
0q
1(!
1w
0u
0J
1S
1I
0T
#437500
1!
1o
1p
#440000
0!
0o
0p
0:!
09!
18!
0&!
1q
0(!
1'!
0w
0S
1%
0I
1T
#442500
1!
1o
1p
1E!
0F!
0-
06
1,
15
#445000
0!
0o
0p
1:!
1&!
0t
0q
0'!
0$!
0}
0{
0G
0F
0E
0%
0T
0*!
0+!
0~
#447500
1!
1o
1p
#450000
0!
0o
0p
0:!
08!
1q
1%!
1$!
1}
1{
1y
1w
1S
1H
1G
1F
1E
1]
1*!
1+!
1~
#452500
1!
1o
1p
1>!
1\
#455000
0!
0o
0p
1:!
0|
0z
0x
1s
0q
0%!
0$!
1"!
0}
0{
0y
0w
0S
0H
0G
0F
1^
0E
0]
0#!
0*!
0+!
0~
#457500
1!
1o
1p
0,!
0-!
0.!
0/!
0f
0e
0d
0c
1x
#460000
0!
0o
0p
0:!
19!
0&!
0x
1q
1$!
0"!
1}
1{
1y
1u
1J
1H
1G
1F
0^
1E
1T
1*!
1+!
1~
#462500
1!
1o
1p
1v
17!
1R
#465000
0!
0o
0p
1:!
1&!
1t
0s
0q
1(!
1w
0u
0J
1S
1I
0T
#467500
1!
1o
1p
#470000
0!
0o
0p
0:!
09!
18!
0&!
1q
0(!
1'!
0w
0S
1%
0I
1T
#472500
1!
1o
1p
1F!
1-
16
#475000
0!
0o
0p
1:!
1&!
0t
0q
0'!
0$!
0}
0{
0y
0H
0G
0F
0E
0%
0T
0*!
0+!
0~
#477500
1!
1o
1p
#480000
0!
0o
0p
0:!
08!
1q
1%!
1w
1S
1]
#482500
1!
1o
1p
0=!
0)!
0;!
0<!
0>!
0\
0Z
0Y
0[
#485000
0!
0o
0p
1:!
1x
1s
0q
0%!
1"!
0w
0S
1^
0]
#487500
1!
1o
1p
1/!
1f
1z
0x
#490000
0!
0o
0p
0:!
19!
0&!
0z
1x
1q
0"!
1u
1J
0^
1T
#492500
1!
1o
1p
0!!
0v
04!
07!
05!
06!
0Q
0P
0R
0O
#495000
0!
0o
0p
1:!
1&!
1t
0s
0q
1(!
1w
0u
0J
1S
1I
0T
#497500
1!
1o
1p
#500000
0!
0o
0p
0:!
09!
18!
0&!
1q
0(!
1'!
0w
0S
1%
0I
1T
#502500
1!
1o
1p
0C!
0D!
0E!
0F!
0-
06
0,
05
0+
04
0*
03
#505000
0!
0o
0p
1:!
1&!
0t
0q
0'!
0%
0T
#507500
1!
1o
1p
#510000
0!
0o
0p
0:!
08!
1q
1%!
1y
1w
1S
1H
1]
#512500
1!
1o
1p
1>!
1\
#515000
0!
0o
0p
1:!
1z
0x
1s
0q
0%!
1"!
0y
0w
0S
0H
1^
0]
#517500
1!
1o
1p
1.!
0/!
0f
1e
1x
#520000
0!
0o
0p
0:!
19!
0&!
0x
1q
0"!
1y
1u
1J
1H
0^
1T
#522500
1!
1o
1p
1v
17!
1R
#525000
0!
0o
0p
1:!
1&!
1t
0s
0q
1(!
1w
0u
0J
1S
1I
0T
#527500
1!
1o
1p
#530000
0!
0o
0p
0:!
09!
18!
0&!
1q
0(!
1'!
0w
0S
1%
0I
1T
#532500
1!
1o
1p
1F!
1-
16
#535000
0!
0o
0p
1:!
1&!
0t
0q
0'!
0y
0H
0%
0T
#537500
1!
1o
1p
#540000
0!
0o
0p
0:!
08!
1q
1%!
1{
1w
1S
1G
1]
1*!
#542500
1!
1o
1p
1=!
1)!
0>!
0\
1[
#545000
0!
0o
0p
1:!
1x
1s
0q
0%!
1"!
0{
0w
0S
0G
1^
0]
0*!
#547500
1!
1o
1p
1/!
1f
1|
0z
0x
#550000
0!
0o
0p
0:!
19!
0&!
0|
1z
1x
1q
0"!
1{
1u
1J
1G
0^
1T
1*!
#552500
1!
1o
1p
0v
07!
16!
1Q
0R
#555000
0!
0o
0p
1:!
1&!
1t
0s
0q
1(!
1w
0u
0J
1S
1I
0T
#557500
1!
1o
1p
#560000
0!
0o
0p
0:!
09!
18!
0&!
1q
0(!
1'!
0w
0S
1%
0I
1T
#562500
1!
1o
1p
1E!
0F!
0-
06
1,
15
#565000
0!
0o
0p
1:!
1&!
0t
0q
0'!
0{
0G
0%
0T
0*!
#567500
1!
1o
1p
#570000
0!
0o
0p
0:!
08!
1q
1%!
1{
1y
1w
1S
1H
1G
1]
1*!
#572500
1!
1o
1p
1>!
1\
#575000
0!
0o
0p
1:!
1|
0z
0x
1s
0q
0%!
1"!
0{
0y
0w
0S
0H
0G
1^
0]
0*!
#577500
1!
1o
1p
1-!
0.!
0/!
0f
0e
1d
1x
#580000
0!
0o
0p
0:!
19!
0&!
0x
1q
0"!
1{
1y
1u
1J
1H
1G
0^
1T
1*!
#582500
1!
1o
1p
1v
17!
1R
#585000
0!
0o
0p
1:!
1&!
1t
0s
0q
1(!
1w
0u
0J
1S
1I
0T
#587500
1!
1o
1p
#590000
0!
0o
0p
0:!
09!
18!
0&!
1q
0(!
1'!
0w
0S
1%
0I
1T
#592500
1!
1o
1p
1F!
1-
16
#595000
0!
0o
0p
1:!
1&!
0t
0q
0'!
0{
0y
0H
0G
0%
0T
0*!
#597500
1!
1o
1p
#600000
0!
0o
0p
0:!
08!
1q
1%!
1}
1w
1S
1F
1]
#602500
1!
1o
1p
0=!
0)!
1<!
0>!
0\
1Z
0[
#605000
0!
0o
0p
1:!
1x
1s
0q
0%!
1"!
0}
0w
0S
0F
1^
0]
#607500
1!
1o
1p
1/!
1f
1z
0x
#610000
0!
0o
0p
0:!
19!
0&!
0z
1x
1q
0"!
1}
1u
1J
1F
0^
1T
#612500
1!
1o
1p
0v
07!
15!
06!
0Q
1P
0R
#615000
0!
0o
0p
1:!
1&!
1t
0s
0q
1(!
1w
0u
0J
1S
1I
0T
#617500
1!
1o
1p
#620000
0!
0o
0p
0:!
09!
18!
0&!
1q
0(!
1'!
0w
0S
1%
0I
1T
#622500
1!
1o
1p
1D!
0E!
0F!
0-
06
0,
05
1+
14
#625000
0!
0o
0p
1:!
1&!
0t
0q
0'!
0}
0F
0%
0T
#627500
1!
1o
1p
#630000
0!
0o
0p
0:!
08!
1q
1%!
1}
1y
1w
1S
1H
1F
1]
#632500
1!
1o
1p
1>!
1\
#635000
0!
0o
0p
1:!
1z
0x
1s
0q
0%!
1"!
0}
0y
0w
0S
0H
0F
1^
0]
#637500
1!
1o
1p
1.!
0/!
0f
1e
1x
#640000
0!
0o
0p
0:!
19!
0&!
0x
1q
0"!
1}
1y
1u
1J
1H
1F
0^
1T
#642500
1!
1o
1p
1v
17!
1R
#645000
0!
0o
0p
1:!
1&!
1t
0s
0q
1(!
1w
0u
0J
1S
1I
0T
#647500
1!
1o
1p
#650000
0!
0o
0p
0:!
09!
18!
0&!
1q
0(!
1'!
0w
0S
1%
0I
1T
#652500
1!
1o
1p
1F!
1-
16
#655000
0!
0o
0p
1:!
1&!
0t
0q
0'!
0}
0y
0H
0F
0%
0T
#657500
1!
1o
1p
#660000
0!
0o
0p
0:!
08!
1q
1%!
1}
1{
1w
1S
1G
1F
1]
1*!
#662500
1!
1o
1p
1=!
1)!
0>!
0\
1[
#665000
0!
0o
0p
1:!
1x
1s
0q
0%!
1"!
0}
0{
0w
0S
0G
0F
1^
0]
0*!
#667500
1!
1o
1p
1/!
1f
1#!
0|
0z
0x
#670000
0!
0o
0p
0:!
19!
0&!
1|
1z
1x
1q
0"!
1}
1{
1u
1J
1G
1F
0^
1T
0#!
1*!
#672500
1!
1o
1p
0v
07!
16!
1Q
0R
#675000
0!
0o
0p
1:!
1&!
1t
0s
0q
1(!
1w
0u
0J
1S
1I
0T
#677500
1!
1o
1p
#680000
0!
0o
0p
0:!
09!
18!
0&!
1q
0(!
1'!
0w
0S
1%
0I
1T
#682500
1!
1o
1p
1E!
0F!
0-
06
1,
15
#685000
0!
0o
0p
1:!
1&!
0t
0q
0'!
0}
0{
0G
0F
0%
0T
0*!
#687500
1!
1o
1p
#690000
0!
0o
0p
0:!
08!
1q
1%!
1}
1{
1y
1w
1S
1H
1G
1F
1]
1*!
#692500
1!
1o
1p
1>!
1\
#695000
0!
0o
0p
1:!
0|
0z
0x
1s
0q
0%!
1"!
0}
0{
0y
0w
0S
0H
0G
0F
1^
0]
1#!
0*!
#697500
1!
1o
1p
1,!
0-!
0.!
0/!
0f
0e
0d
1c
1x
#700000
0!
0o
0p
0:!
19!
0&!
0x
1q
0"!
1}
1{
1y
1u
1J
1H
1G
1F
0^
1T
1*!
#702500
1!
1o
1p
1v
17!
1R
#705000
0!
0o
0p
1:!
1&!
1t
0s
0q
1(!
1w
0u
0J
1S
1I
0T
#707500
1!
1o
1p
#710000
0!
0o
0p
0:!
09!
18!
0&!
1q
0(!
1'!
0w
0S
1%
0I
1T
#712500
1!
1o
1p
1F!
1-
16
#715000
0!
0o
0p
1:!
1&!
0t
0q
0'!
0}
0{
0y
0H
0G
0F
0%
0T
0*!
#717500
1!
1o
1p
#720000
0!
0o
0p
0:!
08!
1q
1%!
1$!
1w
1S
1E
1]
1+!
1~
#722500
1!
1o
1p
0=!
0)!
1;!
0<!
0>!
0\
0Z
1Y
0[
#725000
0!
0o
0p
1:!
1x
1s
0q
0%!
0$!
1"!
0w
0S
1^
0E
0]
0+!
0~
#727500
1!
1o
1p
1/!
1f
1z
0x
